{
    "data": {
        "id": 1371335,
        "author": {
            "name": "Anton Popov",
            "username": "cnam812",
            "id": 48059,
            "state": "active",
            "avatar_url": "https:\/\/gitlab.com\/uploads\/user\/avatar\/48059\/1832776.png"
        },
        "body": "test test",
        "created_at": 1434124587
    }
}
